1. dtoverlay=w1-gpio to your /boot/config.txt

2. Using this schematic

Raspi VCC (3V3) Pin 1 -----------------------------   VCC    DS18B20
                                               |
                                               |
                                               R1 = 4k7 ...10k
                                               |
                                               |
Raspi GPIO 4    Pin 7 -----------------------------   Data   DS18B20


Raspi GND       Pin 6 -----------------------------   GND    DS18B20


3. pip3 install w1thermsensor

4. w1thermsensor ls
^ to discover sensor

5. Figure out the fucking pin layout on the module is WRONG compared to the datasheet.
3 is 2
2 is 1 
1 is 3

6. Clone, create virtual, activate
7. pip3 install -r requirements.txt
8. python3 ds18b20_example.py